INPUT -s 0.0.0.0/24 -d 0.0.0.0/0 -j ACCEPT
INPUT -s 0.0.0.0/16 -d 0.0.0.0/8 -j ACCEPT
INPUT -s 0.0.0.0/24 -d 0.0.0.0/0 -j ACCEPT
INPUT -s 0.0.0.0/24 -d 0.0.0.0/16 -j ACCEPT -p tcp --dport 0 --sport 0
INPUT -s 0.0.0.0/16 -d 0.0.0.0/8 -j ACCEPT
INPUT -s 0.0.0.0/16 -d 0.0.0.0/8 -j ACCEPT
