         compressed        uncompressed  ratio uncompressed_name
             432082             1122337  61.5% swann.txt
         compressed        uncompressed  ratio uncompressed_name
             485661              638908  24.0% swannsymetric.txt
         compressed        uncompressed  ratio uncompressed_name
             433440              433339  -0.0% swannpgp.txt
