2686 which
1555 would
 601 swann
 571 there
 552 their
 498 could
 417 those
 379 never
 340 might
 331 other
 282 after
 278 still
 240 being
 230 again
 228 these
 227 about
 217 while
 210 first
 198 since
 197 whose
 196 house
 184 quite
 172 where
 168 going
 165 every
 160 great
 154 often
 150 think
 143 found
 135 woman
 133 don't
 127 place
